[
  {
    "name": "title",
    "required": true,
    "label": "Заголовок",
    "type": "string"
  },
  {
    "name": "url",
    "required": true,
    "label": "Ссылка",
    "type": "string"
  },
  {
    "name": "createdAt",
    "required": true,
    "label": "Дата создания",
    "type": "date"
  },
  {
    "name": "author",
    "type": "relation",
    "schema": "one-to-many",
    "ref": "person",
    "refname": "complaints",
    "level": "recipient"
  }
]
