[
  {
    "name": "title",
    "required": true,
    "label": "Заголовок",
    "type": "string"
  },
  {
    "name": "text",
    "label": "Текст",
    "type": "text"
  },
  {
    "name": "name",
    "required": true,
    "label": "Имя автора",
    "type": "string"
  },
  {
    "name": "phone",
    "required": true,
    "label": "Телефон",
    "type": "phone",
    "extra": [
      { "name": "Абхазия", "code": "+7", "flag": "abkh.png" },
      { "name": "Россия", "code": "+7", "flag": "rus.png" }
    ]
  },
  {
    "name": "email",
    "label": "Email",
    "type": "email"
  },
  {
    "name": "photos",
    "label": "Фотографии",
    "type": "gallery"
  },
  {
    "name": "sector",
    "label": "Сектор",
    "type": "string"
  },
  {
    "name": "category",
    "label": "Категория",
    "type": "string"
  },
  {
    "name": "gender",
    "required": true,
    "label": "Пол",
    "type": "radio",
    "extra": ["муж", "жен"]
  },
  {
    "name": "kids",
    "required": true,
    "label": "Детская одежда",
    "type": "switch"
  },
  {
    "name": "brand",
    "label": "Производитель",
    "type": "string"
  },
  {
    "name": "createdAt",
    "required": true,
    "label": "Дата создания",
    "type": "date"
  },
  {
    "name": "price",
    "required": true,
    "label": "Цена",
    "type": "int"
  },
  {
    "name": "looks",
    "label": "Просмотры",
    "type": "int"
  },
  {
    "name": "sold",
    "label": "Продано",
    "type": "switch"
  },
  {
    "name": "district",
    "required": true,
    "label": "Район",
    "type": "select",
    "extra": [
      "сухумский",
      "гулрыпшский",
      "очамчырский",
      "гудаутский",
      "гагрский",
      "ткуарчалский",
      "галский",
      "адлер",
      "сочи"
    ]
  },
  {
    "name": "author",
    "type": "relation",
    "schema": "one-to-many",
    "ref": "person",
    "refname": "fashions",
    "level": "recipient"
  }
]
