[
  {
    "name": "title",
    "required": true,
    "label": "Title",
    "type": "string"
  },
  {
    "name": "excerpt",
    "required": true,
    "label": "Text",
    "type": "description"
  },
  {
    "name": "photo",
    "label": "Photo",
    "type": "img"
  },
  {
    "name": "premiere",
    "required": true,
    "label": "Премьера в мире",
    "type": "date"
  },
  {
    "name": "url",
    "required": true,
    "label": "Ссылка",
    "type": "string"
  },
  {
    "name": "director",
    "required": true,
    "label": "Режиссер",
    "type": "string"
  },
  {
    "name": "genre",
    "label": "Жанр",
    "type": "string"
  },
  {
    "name": "rating",
    "label": "Рейтинг",
    "type": "double"
  }
]
