[
  {
    "name": "title",
    "required": true,
    "label": "Имя",
    "type": "string"
  },
  {
    "name": "phone",
    "label": "Телефон",
    "type": "phone",
    "extra": [
      { "name": "Абхазия", "code": "+7", "flag": "abkh.png" },
      { "name": "Россия", "code": "+7", "flag": "rus.png" }
    ]
  },
  {
    "name": "email",
    "label": "Email",
    "type": "email"
  },
  {
    "name": "text",
    "required": true,
    "label": "Сообщение",
    "type": "text"
  },
  {
    "name": "createdAt",
    "required": true,
    "label": "Дата",
    "type": "date"
  }
]
