[
  {
    "name": "title",
    "label": "Продукты питания",
    "type": "title"
  },
  {
    "name": "description",
    "label": "Описание",
    "type": "description"
  },
  {
    "name": "price",
    "label": "Цена за кг",
    "type": "slider"
  },
  {
    "name": "category",
    "type": "checkbox",
    "label": "Категория",
    "extra": [
      "Мясные продукты",
      "Рыба и морепродукты",
      "Молочные продукты",
      "Овощи и фрукты",
      "Хлеб и выпечка",
      "Кондитерские изделия",
      "Специи",
      "Безалкогольные напитки",
      "Алкогольные напитки",
      "Зерновые и крупы",
      "табачные изделия",
      "Другое"
    ]
  },
  {
    "name": "district",
    "label": "Район",
    "type": "checkbox",
    "extra": [
      "сухумский",
      "гулрыпшский",
      "очамчырский",
      "гудаутский",
      "гагрский",
      "ткуарчалский",
      "галский",
      "адлер",
      "сочи"
    ]
  }
]