[
  {
    "name": "title",
    "label": "Перевозки",
    "type": "title"
  },
  {
    "name": "description",
    "label": "Описание",
    "type": "description"
  },
  {
    "name": "price",
    "label": "Цена",
    "type": "slider"
  },
  {
    "name": "category",
    "type": "checkbox",
    "label": "Категория",
    "extra": [
      "Аренда авто",
      "Аренда спецтехники",
      "Вывоз мусора",
      "Грузоперевозки",
      "Грузчики",
      "Доставка продуктов",
      "Курьер на авто",
      "Междугородные перевозки",
      "Пассажирские перевозки",
      "Перевозка стройматериалов",
      "Пеший курьер",
      "Услуги водителя",
      "Услуги эвакуатора",
      "Другое"
    ]
  },
  {
    "name": "district",
    "label": "Район",
    "type": "checkbox",
    "extra": [
      "сухумский",
      "гулрыпшский",
      "очамчырский",
      "гудаутский",
      "гагрский",
      "ткуарчалский",
      "галский",
      "адлер",
      "сочи"
    ]
  }
]