[
  {
    "name": "title",
    "required": true,
    "label": "Title",
    "type": "string"
  },
  {
    "name": "description",
    "required": true,
    "label": "Text",
    "type": "description"
  },
  {
    "name": "text",
    "required": true,
    "label": "Text",
    "type": "text"
  },
  {
    "name": "photos",
    "label": "Photos",
    "type": "gallery"
  },
  {
    "name": "createdAt",
    "required": true,
    "label": "Дата",
    "type": "date"
  }
]