[
  {
    "name": "title",
    "label": "Охота и рыбалка",
    "type": "title"
  },
  {
    "name": "description",
    "label": "Описание",
    "type": "description"
  },
  {
    "name": "price",
    "label": "Цена",
    "type": "slider"
  },
  {
    "name": "district",
    "label": "Район",
    "type": "checkbox",
    "extra": [
      "сухумский",
      "гулрыпшский",
      "очамчырский",
      "гудаутский",
      "гагрский",
      "ткуарчалский",
      "галский",
      "адлер",
      "сочи"
    ]
  }
]