[
  {
    "name": "title",
    "label": "Парфюмерия",
    "type": "title"
  },
  {
    "name": "description",
    "label": "Описание",
    "type": "description"
  },
  {
    "name": "price",
    "label": "Цена",
    "type": "slider"
  },
  {
    "name": "brand",
    "label": "Производитель",
    "type": "string"
  },
  {
    "name": "category",
    "type": "checkbox",
    "label": "Категория",
    "extra": [
      "Духи",
      "Пробники",
      "Туалетная вода",
      "Другое"
    ]
  },
  {
    "name": "district",
    "label": "Район",
    "type": "checkbox",
    "extra": [
      "сухумский",
      "гулрыпшский",
      "очамчырский",
      "гудаутский",
      "гагрский",
      "ткуарчалский",
      "галский",
      "адлер",
      "сочи"
    ]
  }
]