[
  {
    "name": "title",
    "label": "Частный сектор",
    "type": "title"
  },
  {
    "name": "description",
    "label": "Описание",
    "type": "description"
  },
  {
    "name": "price",
    "label": "Цена",
    "type": "slider"
  },
  {
    "name": "category",
    "type": "checkbox",
    "label": "Категория",
    "extra": [
      "Квартира",
      "Комната",
      "Хостел",
      "Собственный дом"
    ]
  },
  {
    "name": "district",
    "label": "Район",
    "type": "checkbox",
    "extra": [
      "сухумский",
      "гулрыпшский",
      "очамчырский",
      "гудаутский",
      "гагрский",
      "ткуарчалский",
      "галский",
      "адлер",
      "сочи"
    ]
  }
]