[
  {
    "name": "title",
    "label": "Бытовая техника",
    "type": "title"
  },
  {
    "name": "description",
    "label": "Описание",
    "type": "description"
  },
  {
    "name": "price",
    "label": "Цена",
    "type": "slider"
  },
  {
    "name": "brand",
    "label": "Производитель",
    "type": "string"
  },
  {
    "name": "category",
    "type": "checkbox",
    "label": "Категория",
    "extra": [
      "Вытяжки",
      "Мелкая кухонная техника",
      "Микроволновые печи",
      "Плиты",
      "Посудомоечные машины",
      "Холодильники и морозильные камеры",
      "Пылесосы",
      "Стиральные машины",
      "Утюги",
      "Швейные машины",
      "Вентиляторы",
      "Кондиционеры",
      "Обогреватели",
      "Очистители воздуха",
      "Термометры и метеостанции",
      "Бритвы и триммеры",
      "Машинки для стрижки",
      "Фены и приборы для укладки",
      "Эпиляторы",
      "Другое"
    ]
  },
  {
    "name": "district",
    "label": "Район",
    "type": "checkbox",
    "extra": [
      "сухумский",
      "гулрыпшский",
      "очамчырский",
      "гудаутский",
      "гагрский",
      "ткуарчалский",
      "галский",
      "адлер",
      "сочи"
    ]
  }
]