[
  {
    "name": "title",
    "label": "Обустройство детской",
    "type": "title"
  },
  {
    "name": "description",
    "label": "Описание",
    "type": "description"
  },
  {
    "name": "price",
    "label": "Цена",
    "type": "slider"
  },
  {
    "name": "brand",
    "label": "Производитель",
    "type": "string"
  },
  {
    "name": "category",
    "type": "checkbox",
    "label": "Категория",
    "extra": [
      "Защитные барьеры, накладки",
      "Качели, шезлонги",
      "Колыбели, люльки",
      "Кроватки",
      "Манежи",
      "Ночники",
      "Пеленальные столики",
      "Постельные принадлежности",
      "Ростомеры",
      "Стульчики для кормления",
      "Ходунки, прыгунки",
      "Другое"
    ]
  },
  {
    "name": "district",
    "label": "Район",
    "type": "checkbox",
    "extra": [
      "сухумский",
      "гулрыпшский",
      "очамчырский",
      "гудаутский",
      "гагрский",
      "ткуарчалский",
      "галский",
      "адлер",
      "сочи"
    ]
  }
]